00003FFC
00000675
00000000
00000000
00000000
00000000
00000000
00000000
00000000
00000000
00000000
00000000
00000000
00000000
00000000
00000000
00000679
00000681
00000000
00000000
00000000
00000000
00000000
00000000
00000000
00000000
00000000
00000000
00000000
00000000
00000000
00000000
F802F000
F838F000
C830A00C
18243808
1E67182D
46AB46A2
465D4654
D10142AC
F82AF000
3E0F467E
CC0F46B6
42332601
1AFBD000
46A24333
471846AB
00000D80
00000D90
24002300
26002500
D3013A10
D8FBC178
D3000752
D500C130
4770600B
2964B510
F000D102
BD10FC27
BD102000
BD1FB51F
BD10B510
FDBCF000
F7FF4611
F000FFF7
F000FAA5
B403FDD4
FFF2F7FF
F000BC03
0000FBCA
B085B5F0
FB3AF000
96002603
22602505
24069203
4F459404
46294628
47B84623
27749600
46294628
463B4622
47A04C3F
23759600
46289302
9C034639
4F3B4622
960047B8
46202261
9B024629
47A04C37
4628250F
FAEAF000
20644E35
64712128
202364B0
211E9003
22142719
2409230C
62709804
62F362B4
63726335
63F163B7
64319903
60F52500
70356130
46202401
FA8CF000
48276931
FC18F000
462A2110
FA93F000
FAA8F000
49244823
0178500C
500A2250
270401BB
623450CF
1808233C
203E6042
6048600B
481D7135
47B84F1D
47B8481D
47B8481D
47B8481D
47B8481D
47B8481D
47B8481D
47B8481D
47B8481D
46284D1D
481D47B8
A01D47B8
A02447B8
A02B47B8
462847B8
A03047B8
FBBEF000
FB24F000
D0FB2800
483268F1
FB3CF000
60044831
60012102
BDF0B005
000007F5
00300060
002FAF08
00000644
00300104
00000D18
000008B1
00000CFB
00000DC7
00000DE4
00000DAA
00000D8D
00000E01
00000E1E
00000D70
00000D36
00000D53
41552A0A
74205452
696D7265
206C616E
61207369
76697463
64657461
00000000
41552A0A
62205452
20647561
65726172
3120203A
30303239
73706220
00000000
654B2A0A
616F6279
69206472
6E692073
776F6C20
63207265
00657361
6572500A
61207373
6B20796E
74207965
7473206F
00747261
00000CF0
E000E100
F000B510
4808FA45
60C12100
46204C07
FB46F000
F0004620
4805FB43
60012101
60012102
46C0BD10
00300060
00000CDC
E000E180
2407B570
4620215E
FA78F000
402825FE
61B04E07
4348216F
FA6EF000
46202172
FA6CF000
40282100
623161F0
46C0BD70
00300060
480FB510
60012102
60042401
F000A00D
A00FFB13
FA96F000
F000A012
F000FA93
2800FA73
F000D0FB
2871FA69
4601D004
2972A012
E000D1F1
46202400
46C0BD10
E000E180
6D61470A
766F2065
00007265
6572500A
27207373
74202771
7571206F
00007469
6572500A
27207373
74202772
6572206F
79616C70
00000000
766E490A
64696C61
706E6920
00007475
F000B510
491BFA35
2A017A0A
4A1AD11C
589C4B1A
D1032877
D0012C04
E0102003
D1032864
D0012C02
E00A2001
D1032861
D0012C01
E0042002
D1062873
D0042C03
50982004
72082000
2872BD10
2820D00A
7908D1F8
D0082800
71082000
22014809
E7EF6002
70082001
2001E7EC
4A047108
E7E76010
00300060
00000644
00300104
E000E180
E000E100
4F69B5FE
28007938
E0C8D000
28016A38
4D66D120
FF50F7FF
01902219
69B8582B
260069F9
429E462F
683CDA0C
D1034284
593C0154
D002428C
1C761D3F
4F5AE7F3
E7E7617E
617E4F58
9200221C
1C8B1C82
F990F000
01B02619
90024D54
1E485829
19490089
28013908
0172DB09
23C9588A
50CA009B
604A680A
1F091E40
6178E7F3
5828484B
28031E40
0080D807
5809A149
58104A4C
18516802
68286001
428869B9
0174D135
69FA5929
D1324291
92002200
1C8B1C82
F95EF000
58A89A02
21090080
502943C9
008058A8
51011828
1C4058A8
200150A8
68F86238
60F81C40
DA04280B
18380080
61396A41
6939E000
F0004836
2110FA39
F0002200
F000F8B4
68F8F8C9
F952F000
483168F9
F992F000
01716828
9A025869
230158AC
DA0D42A3
58AF009A
D10542B8
017718AA
429159D2
D0004622
4F1D461A
E7EF1C53
2860617B
2805D003
2061D103
2006E000
29056028
2974D003
2006D104
2075E000
50680171
61782000
DA0F42A0
18290080
58890172
22E05828
1C829200
F0001C8B
9802F8FD
6978582C
E7EC1C40
194100A0
68001F08
009222C7
22005889
1C8B9200
F0001C82
2001F8EB
F0007238
BDFEF87D
00300060
00300104
00000644
00000002
FFFFFFFE
FFFFFFFE
00000002
00000CCC
002FAF08
00000CF0
F884F000
FD60F7FF
78204C05
D0042800
FE50F7FF
FD58F7FF
BF30E7F7
46C0E7F5
00300060
47004807
F7FFB507
BD07FF01
F7FFB507
BD07FEB9
49044803
4B054A04
00004770
00000651
00300750
00300F50
00300B50
00300B50
60084901
46C04770
50000008
180801C9
49010080
47705042
5000000C
60084901
46C04770
51000008
06002051
B2C06800
21514770
60080609
29404770
2910D005
2904D005
2120D105
2160E004
2140E002
2100E000
065B2329
20016018
00506158
60984308
46C04770
68014802
430A2201
47706002
52000008
21014801
47706001
52000014
06002053
60412100
47706800
06092153
604A2201
47706008
60084901
46C04770
53000008
21014801
47706001
5300000C
480AB580
22FF6801
60014391
68020211
6002438A
F810F000
21004805
708170C1
70017041
60014803
46C0BD80
E000E400
003000AC
E000ED10
2400B5B0
D00B2C64
2D782500
2200D006
46294620
FF84F7FF
E7F61C6D
E7F11C64
46C0BDB0
78C1480D
70C11C49
290AB2C9
2100D112
788270C1
70821C52
2A0AB2D2
7081D10A
1C527842
B2D27042
D1032A0A
78017041
70011C49
46C04770
003000AC
461CB5FE
91019202
9E084607
42879802
9D01DA0B
DA0642A5
46294638
F7FF4632
1C6DFF4F
1C7FE7F6
BDFEE7F0
F7FFB580
BD80FF83
F7FFB580
BD80FF85
46C04770
4A06B510
461A6813
0063B2DC
D3FA4284
0842B2D0
D8FB4288
46C0BD10
52000004
60084901
46C04770
50000008
06092151
47706008
06002051
B2C06800
46C04770
68014802
43882001
46C04770
51000004
4901B2C0
47706008
50000008
06002051
B2C06800
20004770
477043C0
06092151
6008B2C0
E7FE4770
00004770
4905B40F
AA03B510
F0009802
BC10F99B
B004BC08
00004718
003000B0
460EB5F8
20004604
46206220
478868E1
D0292800
D0022825
68A16862
68E1E020
27004620
00054788
4628D01E
28193841
2701D802
352002FF
46204632
46296027
FBE8F7FF
D0082800
D0042801
08F61DF6
360800F6
1D36E7D9
6862E7D7
68A14628
6A204790
E7CF1C40
BDF86A20
2500B5F7
68102975
A6149900
46C0D011
280046C0
4240DA02
E008A611
68099900
D501078A
E002A60F
D5040749
2501A60E
46C0E001
9F0046C0
37242400
F000E004
3130F951
1C645539
D1F82800
4632462B
98004621
F8DAF000
0000BDFE
00000000
0000002D
0000002B
00000020
4604B510
F7FFE003
1C40FF6B
7820D008
1C644905
D1F62800
F7FF200A
BD10FF61
43C02000
0000BD10
003000B0
09032200
D32C428B
428B0A03
2300D311
E04E469C
430B4603
2200D43C
428B0843
0903D331
D31C428B
428B0A03
4694D301
09C3E03F
D301428B
1AC001CB
09834152
D301428B
1AC0018B
09434152
D301428B
1AC0014B
09034152
D301428B
1AC0010B
08C34152
D301428B
1AC000CB
08834152
D301428B
1AC0008B
08434152
D301428B
1AC0004B
1A414152
4601D200
46104152
E05D4770
D0000FCA
10034249
4240D300
469C4053
09032200
D32D428B
428B0A03
0189D312
BA1222FC
428B0A03
0189D30C
428B1192
0189D308
428B1192
0189D304
1192D03A
0989E000
428B09C3
01CBD301
41521AC0
428B0983
018BD301
41521AC0
428B0943
014BD301
41521AC0
428B0903
010BD301
41521AC0
428B08C3
00CBD301
41521AC0
428B0883
008BD301
41521AC0
0843D2D9
D301428B
1AC0004B
1A414152
4601D200
46104152
105B4663
4240D301
D5002B00
47704249
105B4663
4240D300
4905B501
DC022800
40081C49
4608E000
46C046C0
BF00BD02
7FFFFFFF
47704770
47704770
4604B5FF
B081460D
90003024
06886821
2210D504
439169E0
E0006021
42A82001
1B47DD01
2700E000
69A19804
1810197A
61A01A08
06C07820
4620D402
46C046C0
E0082600
68629803
5D8068A1
6A204790
1C761C40
98046220
DBF34286
06C07820
4620D50A
46C046C0
6862E006
203068A1
6A204790
62201C40
1E7F4638
DCF42800
9800E007
68A16862
47905D40
1C406A20
46286220
28001E6D
4620DCF3
46C046C0
06007820
2002D502
BDF0B005
E7FB2001
B5704B08
447B460D
F827F000
46284604
FE49F7FF
D0022800
43C02000
4620BD70
0000BD70
FFFFFC87
08804601
09021A08
0A021810
0C021810
08C01810
18120082
1A890052
1C40E001
290A390A
4770D2FB
1C4A6901
78086102
B5004770
9102B08F
91052100
93014905
91034479
90044611
F7FF4668
B00FFE31
0000BD00
FFFFFFE5
F0004675
46AEF825
46690005
08C04653
468500C0
B520B018
FCFCF7FF
46B6BC60
27002600
C5C0C5C0
C5C0C5C0
C5C0C5C0
C5C0C5C0
08493D40
468D0049
B5104770
46C04604
462046C0
FA25F7FF
0000BD10
47704800
00300000
00300104
00300104
00300424
00300424
0A0A0A0A
0A0A0A0A
0A0A0A0A
0A0A0A0A
000A0A0A
6F63530A
253D6572
0A000A64
2D2D2D2D
202D2D2D
6B616E53
61472065
2D20656D
2D2D2D2D
002D2D2D
2D2D0A0A
2D2D2D2D
45202D2D
44204B44
206F6D65
2D2D2D2D
2D2D2D2D
2D0A002D
2D2D2D2D
2D2D2D2D
2D2D2D2D
2D2D2D2D
2D2D2D2D
2D2D2D2D
0A002D2D
72206F54
74206E61
67206568
2C656D61
6B616D20
75732065
003A6572
79654B0A
72616F62
70732064
20656361
2E2E2E2E
70202E2E
65737561
654B0A00
616F6279
73206472
2E2E2E20
202E2E2E
65766F6D
776F6420
4B0A006E
6F627965
20647261
2E2E2077
2E2E2E2E
6D202E2E
2065766F
0A007075
746E6543
62206572
2E206E74
2E2E2E2E
72616820
65722064
00746573
79654B0A
72616F62
20722064
2E2E2E2E
6F73202E
72207466
74657365
654B0A00
616F6279
61206472
2E2E2E20
202E2E2E
65766F6D
66656C20
4B0A0074
6F627965
20647261
2E2E2064
202E2E2E
65766F6D
67697220
00007468
00000E4C
00300000
00000F50
000000C4
