# compile verilog/system verilog design source files
verilog xil_defaultlib  \
"../../../../arm_introduction_soc_design.srcs/sources_1/new/AHBSPI.v" \
"../../../../arm_introduction_soc_design.srcs/sources_1/new/fifo.v" \
"../../../../arm_introduction_soc_design.srcs/sources_1/new/spi_clk.v" \
"../../../../arm_introduction_soc_design.srcs/sources_1/new/spi_ctrl.v" \
"../../../../arm_introduction_soc_design.srcs/sim_1/new/AHBSPI_TB.v" \

# compile glbl module
verilog xil_defaultlib "glbl.v"

# Do not sort compile order
nosort
